INDEX VERSION 1.127+E:\Curso_Paginas_Web\UF_1844\E2\.metadata\.plugins\org.eclipse.jdt.core
1004716384.index
3172068124.index
188619105.index
4166838873.index
2167310551.index
3119455041.index
3256285438.index
375126478.index
3878457715.index
3745440774.index
2927524569.index
486699731.index
1904741536.index
3681335767.index
2312443017.index
4117981669.index
2831536327.index
1583927216.index
1847969816.index
1664405848.index
2017505986.index
